{
  "timeZone": "America/Edmonton",
  "exceptionLogging": "STACKDRIVER",
  "runtimeVersion": "V8",
  "dependencies": {
    "enabledAdvancedServices": [
      {
        "userSymbol": "Drive",
        "serviceId": "drive",
        "version": "v2"
      },
      {
        "userSymbol": "Gmail",
        "serviceId": "gmail",
        "version": "v1"
      }
    ],
    "libraries": [
      {
        "userSymbol": "MomentAPI",
        "libraryId": "1e9QVCAfWc-IIUnyGyaIGksWmalLkeZENHiHE42hgcHBddb2IH6fdTvCa",
        "version": "2"
      },
      {
        "userSymbol": "Cheerio",
        "version": "14",
        "libraryId": "1ReeQ6WO8kKNxoaA_O0XEQ589cIrRvEBA9qcWpNqdOP17i47u6N9M5Xh0"
      }
    ]
  }
}